<?xml version="1.0" encoding="UTF-8"?>
<svg width="65px" height="42px" viewBox="0 0 65 42" version="1.1" xmlns="http://www.w3.org/2000/svg" xmlns:xlink="http://www.w3.org/1999/xlink">
    <title>Shape</title>
    <g id="Page-1" stroke="none" stroke-width="1" fill="none" fill-rule="evenodd">
        <path d="M34.1970562,41.9449762 L21.0303793,41.7171574 C16.7673004,41.6377707 12.493612,41.7962401 8.31412283,40.9737808 C1.95615534,39.7449584 1.505735,33.7197748 1.03441723,28.6657866 C0.384988913,21.5605168 0.63640126,14.3262814 1.86195608,7.28032357 C2.55382228,3.32680057 5.27659872,0.967704991 9.48727329,0.710990619 C23.7013944,-0.220663554 38.0100363,-0.110252041 52.1926505,0.324398241 C53.6905151,0.364243718 55.1986677,0.582025105 56.6756348,0.829918723 C63.9662714,2.03897042 64.1440604,8.86684272 64.6166642,14.6146288 C65.087982,20.4217269 64.888974,26.2586331 63.9881333,32.0261899 C63.2654032,36.8015639 61.8826353,40.8061864 56.047104,41.1927788 C48.7355699,41.6982993 41.5918585,42.1052706 34.2597485,41.9756968 C34.26007,41.9449762 34.2179536,41.9449762 34.1970562,41.9449762 Z M26.4563208,29.8550676 C31.9661735,26.8620944 37.3708959,23.919004 42.8492417,20.9461056 C37.329101,17.9531323 31.9346665,15.010042 26.4563208,12.0371436 L26.4563208,29.8550676 Z" id="Shape" fill="#FFFFFF" fill-rule="nonzero"></path>
    </g>
</svg>